{
  "authorization": {
    "name": "authorization",
    "errMsg": {
      "ru": "Что-то пошло не так. Проверьте введенные логин и пароль.",
      "en": "Smth went wrong. Check your username and password."
    },
    "phLogin": {
      "ru": "Введите логин",
      "en": "Enter username"
    },
    "phPass": {
      "ru": "Введите пароль",
      "en": "Enter password"
    }
  },
  "registration": {
    "name": "registration",
    "errMsgPass": {
      "ru": "Пароли не заданы или не совпадают.",
      "en": "Passwords are not set or do not match."
    },
    "errMsgLoginServer": {
      "ru": "Логин занят, выберите другой.",
      "en": "Login is busy, select another."
    },
    "errMsgLoginClient": {
      "ru": "Придумайте логин.",
      "en": "Create a username."
    },
    "phLogin": {
      "ru": "Придумайте логин",
      "en": "Create a username"
    },
    "phPass": {
      "ru": "Придумайте пароль",
      "en": "Create a password"
    },
    "phPassAgain": {
      "ru": "Введите пароль еще раз",
      "en": "Enter password again"
    }
  },
  "server": {
    "production":{
      "url": "/"
    },
    "development": {
      "url": "http://127.0.0.1:1502/"
    }
  },
  "header": {
    "title": {
      "ru": "Flashback",
      "en": "Flashback"
    },
    "cardsCb": {
      "ru": "Карточки",
      "en": "Cards"
    },
    "testCb": {
      "ru": "Тест",
      "en": "Check"
    }
  },
  "cards": {
    "training": {
      "header": {
        "ru": "Изучение",
        "en": "Learning"
      }
    },
    "test": {
      "header": {
        "ru": "Тестирование",
        "en": "Test"
      }
    }
  }
}